Customer Personality Analysis
…
Missing Values

# Counting the total number of missing values and each variables in the data
n_miss(df)

## [1] 24

miss_var_summary(df)

## # A tibble: 29 x 3
##    variable       n_miss pct_miss
##    <chr>           <int>    <dbl>
##  1 Income             24     1.07
##  2 ID                  0     0   
##  3 Year_Birth          0     0   
##  4 Education           0     0   
##  5 Marital_Status      0     0   
##  6 Kidhome             0     0   
##  7 Teenhome            0     0   
##  8 Dt_Customer         0     0   
##  9 Recency             0     0   
## 10 MntWines            0     0   
## # ... with 19 more rows
…
##  num [1:2212] 1 1 1 1 1 1 1 1 1 1 ...

str(customers_copy$Marital_Status)

##  num [1:2212] 0 0 1 1 1 1 0 1 1 1 ...

dim(customers_copy)

## [1] 2212   26

# glimpse(customers_copy)

miss_var_summary(customers_copy)

## # A tibble: 26 x 3
##    variable       n_miss pct_miss
##    <chr>           <int>    <dbl>
##  1 Education           0        0
##  2 Marital_Status      0        0
##  3 Income              0        0
##  4 Recency             0        0
##  5 wines               0        0
##  6 fruits              0        0
##  7 meat                0        0
##  8 fish                0        0
##  9 sweet               0        0
## 10 gold                0        0
## # ... with 16 more rows
…
